{"docs":[{"id":1267348,"name":"Джон Уик 4","alternativeName":"John Wick: Chapter 4","enName":"","type":"movie","year":2023,"description":"Оставляя за собой горы трупов, Джон Уик продолжает скрываться от всевозможных наёмных убийц, и теперь охоту на него возглавляет молодой и честолюбивый член Правления по имени Маркиз. Два управляющих отелями «Континенталь» в Нью-Йорке и Осаке, решившие по старой дружбе помочь своенравному киллеру, уже жестоко за это поплатились, но внезапно Джон узнаёт способ выбраться из этой, казалось бы, безвыходной ситуации.","shortDescription":"Чтобы обрести свободу, киллер-изгой бросает вызов Правлению кланов. Самая зрелищная часть стильной экшен-саги","movieLength":169,"isSeries":false,"ticketsOnSale":false,"totalSeriesLength":null,"seriesLength":null,"ratingMpaa":"r","ageRating":18,"top10":null,"top250":null,"typeNumber":1,"status":null,"names":[{"name":"Джон Уик 4"},{"name":"John Wick: Chapter 4"},{"name":"Джон Уик: Часть 4","language":"RU","type":null},{"name":"Джон Уік 4","language":"UA","type":null},{"name":"John Wick: 4. felvonás - Hagakure","language":"HU","type":null},{"name":"John Wick 4","language":"US","type":null},{"name":"JW4","language":"US","type":null},{"name":"ジョン・ウィック チャプター4","language":"JP","type":null},{"name":"ジョン・ウィック: チャプター4","language":"JP","type":null},{"name":"ジョン・ウィック4","language":"JP","type":null},{"name":"John Wick 4: Hagakure","language":"US","type":"working title"},{"name":"Džons Viks 4","language":"LV","type":null},{"name":"จอห์น วิค 4 : แรงกว่านรก","language":"TH","type":null},{"name":"John Wick : Chapitre 4","language":"FR","type":null},{"name":"John Wick 4","language":"LT","type":null},{"name":"殺神John Wick 4","language":"HK","type":null},{"name":"존 윅 4","language":"KR","type":null},{"name":"존 윅: 챕터 4","language":"KR","type":null},{"name":"ג'ון וויק: חלק 4","language":"IL","type":null},{"name":"John Wick: Capítulo 4","language":"PT","type":null},{"name":"ジョン・ウィック：チャプター4","language":"JP","type":null},{"name":"ジョン・ウィック コンセクエンス","language":"JP","type":null},{"name":"جان ویک ۴","language":"IR","type":null},{"name":"捍衛任務4","language":"TW","type":null},{"name":"جون ويك - الفصل الرابع","language":"IQ","type":"أكشن - مغامرات"},{"name":"John Wick - 4. felvonás","language":"HU","type":null},{"name":"Sát Thủ John Wick: Phần 4","language":"VN","type":null},{"name":"John Wick: Consequences","language":"JP","type":null},{"name":"john wick chapitre 4","language":"CA","type":null},{"name":"john wick: chapitre 4","language":"FR","type":null},{"name":"John Wick 4 - Baba Yaga (2023)","language":"BR","type":null},{"name":"John Wick։ Chapter 4","language":"US","type":null}],"externalId":{"imdb":"tt10366206","tmdb":603692,"kpHD":"2c3ff245c64f4a1aaaf7b9e87dbcdcfb"},"logo":{"url":"https://imagetmdb.com/t/p/original/3x4ez877ElQXe78K1FzTYtmfGqA.png"},"poster":{"url":"https://avatars.mds.yandex.net/get-kinopoisk-image/6201401/62c1301b-c913-4b3c-af87-74934ae1ec93/orig","previewUrl":"https://avatars.mds.yandex.net/get-kinopoisk-image/6201401/62c1301b-c913-4b3c-af87-74934ae1ec93/x1000"},"backdrop":{"url":"https://imagetmdb.com/t/p/original/tfw5LKySp7uEYJ3CUuD4TKx3s8y.jpg","previewUrl":"https://imagetmdb.com/t/p/w500/tfw5LKySp7uEYJ3CUuD4TKx3s8y.jpg"},"rating":{"kp":7.561,"imdb":7.7,"filmCritics":8.1,"russianFilmCritics":90,"await":null},"votes":{"kp":541611,"imdb":324002,"filmCritics":373,"russianFilmCritics":10,"await":67689},"genres":[{"name":"боевик"},{"name":"триллер"},{"name":"криминал"}],"countries":[{"name":"США"},{"name":"Германия"}],"releaseYears":[]},{"id":885658,"name":"Джон Уик 2","alternativeName":"John Wick: Chapter Two","enName":"","type":"movie","year":2017,"description":"Когда бывший коллега Джона решает взять под свой контроль таинственную гильдию убийц, Уик вынужден выйти из отставки. Ведомый кровавой клятвой Джон отправляется в Рим, где ему придется сразиться с одними из самых опасных киллеров в мире.","shortDescription":"Киллер-меланхолик отправляется в Рим, чтобы убить сестру мафиози. Масштабный сиквел боевика с Киану Ривзом","movieLength":122,"isSeries":false,"ticketsOnSale":false,"totalSeriesLength":null,"seriesLength":null,"ratingMpaa":"r","ageRating":18,"top10":null,"top250":null,"typeNumber":1,"status":null,"names":[{"name":"Джон Уик 2"},{"name":"John Wick: Chapter Two"},{"name":"John Wick 2","language":"US","type":"working title"},{"name":"John Wick : Bölüm 2","language":"TR","type":"literal title"},{"name":"John Wick Pacto de sangre","language":"ES","type":null},{"name":"John Wick : Chapitre 2","language":"FR","type":null},{"name":"Džonas Vikas. Antra dalis","language":"LT","type":null},{"name":"John Wick 2 Un nuevo día para matar","language":"MX","type":null},{"name":"John Wick 2 Un nuevo día para matar","language":"ES","type":null},{"name":"John Wick Chapitre 2","language":"CA","type":null},{"name":"疾速追杀2","language":"CN","type":null},{"name":"John Wick Kapitel 2","language":"CH","type":null},{"name":"John Wick։ Chapter Two","language":"US","type":null},{"name":"John Wick - Kapitel 2","language":"DE","type":null},{"name":"John Wick Um Novo Dia Para Matar","language":"BR","type":null},{"name":"疾速追杀2：疾速特攻","language":"CN","type":null},{"name":"疾速特攻","language":"CN","type":null},{"name":"จอห์น วิค 2 : แรงกว่านรก","language":"TH","type":null},{"name":"ג'ון וויק: חלק 2","language":"IL","type":null},{"name":"捍衛任務2：殺神回歸","language":"TW","type":null},{"name":"殺神John Wick 2","language":"HK","type":null},{"name":"殺神John Wick 2","language":"TW","type":null},{"name":"John Wick：Chapter 2","language":"UM","type":"Full Title with Alt Char '：'for Windows filenames"}],"externalId":{"imdb":"tt4425200","tmdb":324552,"kpHD":"4c8ac4db38abb1d285a55e016da54951"},"logo":{"url":"https://imagetmdb.com/t/p/original/jcvShZipApjpWaAGVn9lsgBwjhC.png"},"poster":{"url":"https://avatars.mds.yandex.net/get-kinopoisk-image/1629390/5ba3f3fe-73da-41e7-b977-2792658e411e/orig","previewUrl":"https://avatars.mds.yandex.net/get-kinopoisk-image/1629390/5ba3f3fe-73da-41e7-b977-2792658e411e/x1000"},"backdrop":{"url":"https://imagetmdb.com/t/p/original/r17jFHAemzcWPPtoO0UxjIX0xas.jpg","previewUrl":"https://imagetmdb.com/t/p/w500/r17jFHAemzcWPPtoO0UxjIX0xas.jpg"},"rating":{"kp":7.12,"imdb":7.4,"filmCritics":7.4,"russianFilmCritics":100,"await":null},"votes":{"kp":376218,"imdb":505891,"filmCritics":285,"russianFilmCritics":11,"await":19767},"genres":[{"name":"боевик"},{"name":"триллер"},{"name":"криминал"}],"countries":[{"name":"США"},{"name":"Гонконг"}],"releaseYears":[]},{"id":1009536,"name":"Джон Уик 3","alternativeName":"John Wick: Chapter 3 - Parabellum","enName":"John Wick - Chapter 3 - Parabellum","type":"movie","year":2019,"description":"Суперкиллер Джон Уик после нарушения кодекса тайной гильдии ассасинов получает статус изгоя — экскомьюникадо. За его голову назначена цена в 14 миллионов долларов, и армия самых жестоких профессиональных убийц со всего мира открывает на него кровавую охоту.","shortDescription":"Киллер-изгой бежит от байкеров-самураев и других неприятностей. Мощное продолжение остросюжетной франшизы","movieLength":130,"isSeries":false,"ticketsOnSale":false,"totalSeriesLength":null,"seriesLength":null,"ratingMpaa":"r","ageRating":18,"top10":null,"top250":null,"typeNumber":1,"status":null,"names":[{"name":"Джон Уик 3"},{"name":"John Wick: Chapter 3 - Parabellum"},{"name":"Džonas Vikas. Trečia dalis","language":"LT","type":null},{"name":"존 윅: 챕터 3","language":"KR","type":null},{"name":"Джон Уік: Частина 3 – Парабелум","language":"UA","type":null},{"name":"Xhon Uik: Kapitulli 3 - Përgatitje për luftë","language":"AL","type":null},{"name":"急速特工3","language":"CN","type":null},{"name":"John Wick 3 Parabellum","language":"FR","type":null},{"name":"John Wick - Chapter 3 - Parabellum","language":"US","type":null},{"name":"John Wick 3 - Parabellum","language":"IT","type":null},{"name":"John Wick - Kapitel 3","language":"DE","type":null},{"name":"Alpha Cop","language":"CN","type":null},{"name":"John Wick 3","language":"FR","type":null},{"name":"疾速追杀3","language":"CN","type":null},{"name":"疾速备战","language":"CN","type":null},{"name":"疾速追杀3：疾速备战","language":"CN","type":null},{"name":"John Wick - Kapitel 3 (2019)","language":"DE","type":"Alternativtitel"},{"name":"John Wick 3","language":"CA","type":null},{"name":"John Wick Chapter 3 Parabellum","language":"US","type":null},{"name":"John Wick: Capítulo 3 - Parabellum","language":"BR","type":"Lionsgate title"},{"name":"จอห์น วิค 3 : แรงกว่านรก","language":"TH","type":null},{"name":"ג'ון וויק: חלק 3","language":"IL","type":null},{"name":"John Wick 3","language":"US","type":null},{"name":"捍衛任務3：全面開戰","language":"TW","type":null},{"name":"Sát Thủ John Wick: Phần 3 - Chuẩn Bị Chiến Tranh","language":"VN","type":null},{"name":"殺神John Wick 3","language":"HK","type":null},{"name":"殺神John Wick 3","language":"TW","type":null},{"name":"John Wick：Chapter 3 - Parabellum","language":"US","type":"Full Title with Alt Char '：'for Windows filenames"}],"externalId":{"tmdb":458156,"imdb":"tt6146586"},"logo":{"url":"https://avatars.mds.yandex.net/get-ott/2385704/2a0000016ef3be238f2eba6239b15e22089a/orig"},"poster":{"url":"https://avatars.mds.yandex.net/get-kinopoisk-image/1599028/4ec982b3-cf7a-4589-ac69-903d786cc691/orig","previewUrl":"https://avatars.mds.yandex.net/get-kinopoisk-image/1599028/4ec982b3-cf7a-4589-ac69-903d786cc691/x1000"},"backdrop":{"url":"https://imagetmdb.com/t/p/original/vVpEOvdxVBP2aV166j5Xlvb5Cdc.jpg","previewUrl":"https://imagetmdb.com/t/p/w500/vVpEOvdxVBP2aV166j5Xlvb5Cdc.jpg"},"rating":{"kp":6.948,"imdb":7.4,"filmCritics":7.5,"russianFilmCritics":100,"await":null},"votes":{"kp":357421,"imdb":415822,"filmCritics":361,"russianFilmCritics":9,"await":33589},"genres":[{"name":"боевик"},{"name":"триллер"},{"name":"криминал"}],"countries":[{"name":"США"}],"releaseYears":[]},{"id":1399296,"name":"Джон Уик 5","alternativeName":"John Wick: Chapter 5","enName":"","type":"movie","year":0,"description":"","shortDescription":"","movieLength":0,"isSeries":false,"ticketsOnSale":false,"totalSeriesLength":null,"seriesLength":null,"ratingMpaa":null,"ageRating":null,"top10":null,"top250":null,"typeNumber":1,"status":null,"names":[{"name":"Джон Уик 5","language":"RU","type":"Russian title on kinopoisk"},{"name":"John Wick: Chapter 5","language":null,"type":"Original title on kinopoisk"}],"externalId":{"kpHD":null},"logo":null,"poster":{"url":null,"previewUrl":null},"backdrop":{"url":null,"previewUrl":null},"rating":{"kp":0,"imdb":0,"filmCritics":0,"russianFilmCritics":0,"await":96.03},"votes":{"kp":0,"imdb":0,"filmCritics":0,"russianFilmCritics":0,"await":32742},"genres":[{"name":"боевик"},{"name":"триллер"},{"name":"криминал"}],"countries":[{"name":"США"}],"releaseYears":[]},{"id":762738,"name":"Джон Уик","alternativeName":"John Wick","enName":"","type":"movie","year":2014,"description":"Джон Уик - на первый взгляд, самый обычный среднестатистический американец, который ведет спокойную мирную жизнь. Однако мало кто знает, что он был наёмным убийцей, причём одним из лучших профессионалов в своём деле.\n\nПосле того как сынок главы бандитской группы со своими приятелями угоняет его любимый «Мустанг» 1969 года выпуска, при этом убив его собаку Дейзи, которая была подарком недавно почившей супруги, Джон вынужден вернуться к своему прошлому. Теперь Уик начинает охоту за теми, кто имел неосторожность перейти ему дорогу, и он готов на всё, чтобы отомстить.","shortDescription":"Перестрелки, взрывы, безумные гонки и убитая собака: Киану Ривз беспощадно мстит зарвавшимся бандитам","movieLength":101,"isSeries":false,"ticketsOnSale":false,"totalSeriesLength":null,"seriesLength":null,"ratingMpaa":"r","ageRating":18,"top10":null,"top250":null,"typeNumber":1,"status":null,"names":[{"name":"Джон Уик"},{"name":"John Wick"},{"name":"John Wick 1 - De Volta Ao Jogo","language":"BR","type":null},{"name":"John Wick 1","language":"US","type":null},{"name":"John Wick Otro Día Para Matar","language":"ES","type":null},{"name":"Джон Вік","language":"UA","type":null},{"name":"John Wick: Chapter 1","language":"US","type":null},{"name":"John Wick Chapitre 1","language":"CA","type":null},{"name":"De Volta ao Jogo","language":"BR","type":null},{"name":"疾速追杀1","language":"CN","type":null},{"name":"疾速特攻","language":"CN","type":null},{"name":"ג'ון וויק: חלק 1","language":"IL","type":null},{"name":"ジョン・ウィック","language":"JP","type":null},{"name":"ジョン・ウィック：2014","language":"JP","type":null}],"externalId":{"imdb":"tt2911666","tmdb":245891,"kpHD":"496a6a063cc043a194528e8dd80cfad6"},"logo":{"url":"https://avatars.mds.yandex.net/get-ott/236744/2a00000170ed7f29ff23452b61f1f5282a80/orig"},"poster":{"url":"https://avatars.mds.yandex.net/get-kinopoisk-image/1599028/5ab427c8-4a7d-4766-abf9-a9748a69dbf4/orig","previewUrl":"https://avatars.mds.yandex.net/get-kinopoisk-image/1599028/5ab427c8-4a7d-4766-abf9-a9748a69dbf4/x1000"},"backdrop":{"url":"https://imagetmdb.com/t/p/original/7dzngS8pLkGJpyeskCFcjPO9qLF.jpg","previewUrl":"https://imagetmdb.com/t/p/w500/7dzngS8pLkGJpyeskCFcjPO9qLF.jpg"},"rating":{"kp":6.996,"imdb":7.4,"filmCritics":7,"russianFilmCritics":69.2308,"await":null},"votes":{"kp":499731,"imdb":731890,"filmCritics":225,"russianFilmCritics":13,"await":11618},"genres":[{"name":"боевик"},{"name":"триллер"},{"name":"криминал"}],"countries":[{"name":"США"},{"name":"Китай"}],"releaseYears":[]},{"id":5425413,"name":"","alternativeName":"John Wick","enName":"","type":"animated-series","year":0,"description":"","shortDescription":"","movieLength":0,"isSeries":true,"ticketsOnSale":false,"totalSeriesLength":null,"seriesLength":null,"ratingMpaa":null,"ageRating":null,"top10":null,"top250":null,"typeNumber":5,"status":null,"names":[{"name":"John Wick","language":null,"type":"Original title on kinopoisk"}],"externalId":{"kpHD":null},"logo":null,"poster":{"url":null,"previewUrl":null},"backdrop":{"url":null,"previewUrl":null},"rating":{"kp":0,"imdb":0,"filmCritics":0,"russianFilmCritics":0,"await":0},"votes":{"kp":0,"imdb":0,"filmCritics":0,"russianFilmCritics":0,"await":0},"genres":[{"name":"мультфильм"},{"name":"боевик"},{"name":"триллер"},{"name":"криминал"}],"countries":[],"releaseYears":[{"start":null,"end":null}]},{"id":954395,"name":"","alternativeName":"John Wick: The Assassin's Code","enName":"","type":"movie","year":2015,"description":"","shortDescription":"","movieLength":5,"isSeries":false,"ticketsOnSale":false,"totalSeriesLength":null,"seriesLength":null,"ratingMpaa":null,"ageRating":null,"top10":null,"top250":null,"typeNumber":1,"status":null,"names":[{"name":"John Wick: The Assassin's Code"},{"name":"John Wick：The Assassin's Code","language":"US","type":"Full Title with Alt Char '：'for Windows filenames"}],"externalId":{"imdb":"tt5278698","tmdb":619022},"logo":{"url":null},"poster":{"url":null,"previewUrl":null},"backdrop":{"url":null,"previewUrl":null},"rating":{"kp":0,"imdb":8.4,"filmCritics":0,"russianFilmCritics":0,"await":0},"votes":{"kp":20,"imdb":4291,"filmCritics":0,"russianFilmCritics":0,"await":0},"genres":[{"name":"документальный"},{"name":"короткометражка"}],"countries":[{"name":"США"}],"releaseYears":[]},{"id":2000351,"name":"","alternativeName":"John Wick Hex - Making Wick Work as a Strategy Game","enName":"","type":"movie","year":2020,"description":"","shortDescription":"","movieLength":0,"isSeries":false,"ticketsOnSale":false,"totalSeriesLength":null,"seriesLength":null,"ratingMpaa":null,"ageRating":null,"top10":null,"top250":null,"typeNumber":1,"status":null,"names":[{"name":"John Wick Hex - Making Wick Work as a Strategy Game","language":null,"type":"Original title on kinopoisk"}],"externalId":{"kpHD":null},"logo":null,"poster":{"url":null,"previewUrl":null},"backdrop":{"url":null,"previewUrl":null},"rating":{"kp":0,"imdb":0,"filmCritics":0,"russianFilmCritics":0,"await":0},"votes":{"kp":4,"imdb":0,"filmCritics":0,"russianFilmCritics":0,"await":0},"genres":[{"name":"документальный"},{"name":"короткометражка"}],"countries":[{"name":"США"}],"releaseYears":[]},{"id":4923655,"name":"","alternativeName":"John Wick Ch. 3 - Parabellum: Bikes, Blades, Bridges, and Bits","enName":"","type":"movie","year":2019,"description":"","shortDescription":"","movieLength":7,"isSeries":false,"ticketsOnSale":false,"totalSeriesLength":null,"seriesLength":null,"ratingMpaa":null,"ageRating":null,"top10":null,"top250":null,"typeNumber":1,"status":null,"names":[{"name":"John Wick Ch. 3 - Parabellum: Bikes, Blades, Bridges, and Bits"}],"externalId":{"kpHD":null},"logo":{"url":null},"poster":{"url":null,"previewUrl":null},"backdrop":{"url":null,"previewUrl":null},"rating":{"kp":0,"imdb":0,"filmCritics":0,"russianFilmCritics":0,"await":0},"votes":{"kp":3,"imdb":0,"filmCritics":0,"russianFilmCritics":0,"await":0},"genres":[{"name":"короткометражка"}],"countries":[{"name":"США"}],"releaseYears":[]},{"id":4923676,"name":"","alternativeName":"John Wick Ch. 3 - Parabellum: Saddle Up Wick","enName":"","type":"movie","year":2019,"description":"","shortDescription":"","movieLength":5,"isSeries":false,"ticketsOnSale":false,"totalSeriesLength":null,"seriesLength":null,"ratingMpaa":null,"ageRating":null,"top10":null,"top250":null,"typeNumber":1,"status":null,"names":[{"name":"John Wick Ch. 3 - Parabellum: Saddle Up Wick"}],"externalId":{"kpHD":null},"logo":{"url":null},"poster":{"url":null,"previewUrl":null},"backdrop":{"url":null,"previewUrl":null},"rating":{"kp":0,"imdb":0,"filmCritics":0,"russianFilmCritics":0,"await":0},"votes":{"kp":3,"imdb":0,"filmCritics":0,"russianFilmCritics":0,"await":0},"genres":[{"name":"короткометражка"}],"countries":[{"name":"США"}],"releaseYears":[]}],"total":1000,"limit":10,"page":1,"pages":100}